3 The Sampling Distribution – Labs for Intro Biostatistics
…
just_adelie <- subset(penguins, species == "Adelie")
many_adelie_samp10 <- rep_slice_sample(just_adelie, n = 10, reps = 1000)

just_chinstrap <- subset(penguins, species == ___)
many_chinstrap_samp10 <- rep_slice_sample(___, n = 10, reps = 1000)

just_gentoo <- subset(penguins, species == ___)
many_gentoo_samp10 <- rep_slice_sample(___, n = 10, reps = 1000)

If you used the same seed (123) in the above code then you should get these same answers:

many_adelie_samp10

# A tibble: 10,000 × 9
# Groups:   replicate [1,000]
   replicate species island    bill_length_mm bill_depth_mm flipper_length_mm
       <int> <fct>   <fct>              <dbl>         <dbl>             <int>
 1         1 Adelie  Torgersen           38.6          21.2               191
 2         1 Adelie  Dream               42.3          21.2               191
 3         1 Adelie  Torgersen           37.3          20.5               199
 4         1 Adelie  Dream               36            18.5               186
 5         1 Adelie  Dream               41.5          18.5               201
 6         1 Adelie  Dream               37.8          18.1               193
 7         1 Adelie  Dream               38.9          18.8               190
 8         1 Adelie  Dream               35.7          18                 202
 9         1 Adelie  Dream               37.3          16.8               192
10         1 Adelie  Dream               41.1          18.1               205
# ℹ 9,990 more rows
# ℹ 3 more variables: body_mass_g <int>, sex <fct>, year <int>

many_chinstrap_samp10

# A tibble: 10,000 × 9
# Groups:   replicate [1,000]
   replicate species   island bill_length_mm bill_depth_mm flipper_length_mm
       <int> <fct>     <fct>           <dbl>         <dbl>             <int>
 1         1 Chinstrap Dream            47.6          18.3               195
 2         1 Chinstrap Dream            45.7          17                 195
 3         1 Chinstrap Dream            50.9          19.1               196
 4         1 Chinstrap Dream            50.6          19.4               193
 5         1 Chinstrap Dream            47.5          16.8               199
 6         1 Chinstrap Dream            50.5          19.6               201
 7         1 Chinstrap Dream            42.4          17.3               181
 8         1 Chinstrap Dream            45.6          19.4               194
 9         1 Chinstrap Dream            52.7          19.8               197
10         1 Chinstrap Dream            46.2          17.5               187
# ℹ 9,990 more rows
# ℹ 3 more variables: body_mass_g <int>, sex <fct>, year <int>

many_gentoo_samp10

# A tibble: 10,000 × 9
# Groups:   replicate [1,000]
   replicate species island bill_length_mm bill_depth_mm flipper_length_mm
       <int> <fct>   <fct>           <dbl>         <dbl>             <int>
 1         1 Gentoo  Biscoe           43.5          15.2               213
 2         1 Gentoo  Biscoe           45.2          14.8               212
 3         1 Gentoo  Biscoe           50            15.3               220
 4         1 Gentoo  Biscoe           49.6          16                 225
 5         1 Gentoo  Biscoe           43.6          13.9               217
 6         1 Gentoo  Biscoe           47.5          15                 218
 7         1 Gentoo  Biscoe           49.5          16.2               229
 8         1 Gentoo  Biscoe           45.3          13.8               208
 9         1 Gentoo  Biscoe           49.8          16.8               230
10         1 Gentoo  Biscoe           49.1          14.5               212
# ℹ 9,990 more rows
# ℹ 3 more variables: body_mass_g <int>, sex <fct>, year <int>

Remember, we only need to use set.seed in situations where we’re trying to compare output from random sampling. You can delete set.seed after you compared your output to mine.

You can use the rbind function to combine all three sets of sampling distributions into a single tibble.

penguins_sample_dists <- rbind(many_adelie_samp10, 
                               many_chinstrap_samp10,
                               many_gentoo_samp10)

penguins_sample_dists

# A tibble: 30,000 × 9
# Groups:   replicate [1,000]
   replicate species island    bill_length_mm bill_depth_mm flipper_length_mm
       <int> <fct>   <fct>              <dbl>         <dbl>             <int>
 1         1 Adelie  Torgersen           38.6          21.2               191
 2         1 Adelie  Dream               42.3          21.2               191
 3         1 Adelie  Torgersen           37.3          20.5               199
 4         1 Adelie  Dream               36            18.5               186
 5         1 Adelie  Dream               41.5          18.5               201
 6         1 Adelie  Dream               37.8          18.1               193
 7         1 Adelie  Dream               38.9          18.8               190
 8         1 Adelie  Dream               35.7          18                 202
 9         1 Adelie  Dream               37.3          16.8               192
10         1 Adelie  Dream               41.1          18.1               205
# ℹ 29,990 more rows
# ℹ 3 more variables: body_mass_g <int>, sex <fct>, year <int>

Now we have a very large set of samples to examine.

3.2.2 Sample mean \(\bar{Y}\)

To look at the distribution of the sample mean, we first need to calculate the sample mean for all 1000 replicates per species. We will use two helpful functions from dplyr to first group the penguins_sample_dists data.frame by species and replicate, and then calculate the mean for each species with the summarize function. Let’s first look at the sampling distribution of the mean of bill length:

bill_length_sample_dists <-  group_by(penguins_sample_dists, species, replicate)
bill_length_sample_dists <- summarize(bill_length_sample_dists, 
                                      Y_bar = mean(bill_length_mm, na.rm = TRUE))

bill_length_sample_dists

# A tibble: 3,000 × 3
# Groups:   species [3]
   species replicate Y_bar
   <fct>       <int> <dbl>
 1 Adelie          1  38.6
 2 Adelie          2  37.0
 3 Adelie          3  38  
 4 Adelie          4  38.4
 5 Adelie          5  39.2
 6 Adelie          6  39.5
 7 Adelie          7  39.8
 8 Adelie          8  39.4
 9 Adelie          9  40.2
10 Adelie         10  38.2
# ℹ 2,990 more rows
…
