Labs for Intro Biostatistics - 5 🎉 Review 🎉 coding, data, graphics
…
Already we can see some missing data in the form of NA values. If we would like to remove rows that have an NA in a certain column, we can use the function is.na to help us do that.

The function is.na looks different from the other “yes/no” questions like ==, but it serves the same purpose, it lets us ask a “yes/no” question, is this case, “are the values NA or not?”

So if we want to remove rows for which bill_length_mm is NA, we would do this:

subset(penguins, !is.na(penguins$bill_length_mm))

# A tibble: 342 × 8
   species island    bill_length_mm bill_depth_mm flipper_length_mm body_mass_g
   <fct>   <fct>              <dbl>         <dbl>             <int>       <int>
 1 Adelie  Torgersen           39.1          18.7               181        3750
 2 Adelie  Torgersen           39.5          17.4               186        3800
 3 Adelie  Torgersen           40.3          18                 195        3250
 4 Adelie  Torgersen           36.7          19.3               193        3450
 5 Adelie  Torgersen           39.3          20.6               190        3650
 6 Adelie  Torgersen           38.9          17.8               181        3625
 7 Adelie  Torgersen           39.2          19.6               195        4675
 8 Adelie  Torgersen           34.1          18.1               193        3475
 9 Adelie  Torgersen           42            20.2               190        4250
10 Adelie  Torgersen           37.8          17.1               186        3300
# ℹ 332 more rows
# ℹ 2 more variables: sex <fct>, year <int>
…
