Labs for Intro Biostatistics - 4 The Sampling Distribution
…
just_setosa <- subset(iris, Species == "setosa")
many_setosa_samp10 <- rep_slice_sample(just_setosa, n = 10, reps = 1000)

just_versicolor <- subset(iris, Species == ___)
many_versicolor_samp10 <- rep_slice_sample(___, n = 10, reps = 1000)

just_virginica <- subset(iris, Species == ___)
many_virginica_samp10 <- rep_slice_sample(___, n = 10, reps = 1000)

If you used the same seed (123) in the above code then you should get these same answers:

many_setosa_samp10

# A tibble: 10,000 × 6
# Groups:   replicate [1,000]
   replicate Sepal.Length Sepal.Width Petal.Length Petal.Width Species
       <int>        <dbl>       <dbl>        <dbl>       <dbl> <fct>  
 1         1          4.8         3.1          1.6         0.2 setosa 
 2         1          5.8         4            1.2         0.2 setosa 
 3         1          4.3         3            1.1         0.1 setosa 
 4         1          4.7         3.2          1.3         0.2 setosa 
 5         1          4.5         2.3          1.3         0.3 setosa 
 6         1          4.4         3.2          1.3         0.2 setosa 
 7         1          5.5         3.5          1.3         0.2 setosa 
 8         1          4.6         3.2          1.4         0.2 setosa 
 9         1          4.8         3.4          1.9         0.2 setosa 
10         1          5           3            1.6         0.2 setosa 
# ℹ 9,990 more rows

many_versicolor_samp10

# A tibble: 10,000 × 6
# Groups:   replicate [1,000]
   replicate Sepal.Length Sepal.Width Petal.Length Petal.Width Species   
       <int>        <dbl>       <dbl>        <dbl>       <dbl> <fct>     
 1         1          6.6         3            4.4         1.4 versicolor
 2         1          5.7         3            4.2         1.2 versicolor
 3         1          5.6         2.9          3.6         1.3 versicolor
 4         1          5.5         2.6          4.4         1.2 versicolor
 5         1          6.1         2.9          4.7         1.4 versicolor
 6         1          4.9         2.4          3.3         1   versicolor
 7         1          5.6         2.7          4.2         1.3 versicolor
 8         1          5.5         2.3          4           1.3 versicolor
 9         1          6.9         3.1          4.9         1.5 versicolor
10         1          5.1         2.5          3           1.1 versicolor
# ℹ 9,990 more rows

many_virginica_samp10

# A tibble: 10,000 × 6
# Groups:   replicate [1,000]
   replicate Sepal.Length Sepal.Width Petal.Length Petal.Width Species  
       <int>        <dbl>       <dbl>        <dbl>       <dbl> <fct>    
 1         1          5.9         3            5.1         1.8 virginica
 2         1          6.3         2.8          5.1         1.5 virginica
 3         1          7.1         3            5.9         2.1 virginica
 4         1          6.4         3.1          5.5         1.8 virginica
 5         1          6.9         3.1          5.1         2.3 virginica
 6         1          7.2         3            5.8         1.6 virginica
 7         1          6.3         2.9          5.6         1.8 virginica
 8         1          6.7         3.3          5.7         2.1 virginica
 9         1          5.8         2.7          5.1         1.9 virginica
10         1          6.3         2.7          4.9         1.8 virginica
# ℹ 9,990 more rows

Remember, we only need to use set.seed in situations where we’re trying to compare output from random sampling. You can delete set.seed after you compared your output to mine.

You can use the rbind function to combine all three sets of sampling distributions into a single tibble.

iris_sample_dists <- rbind(many_setosa_samp10, 
                           many_versicolor_samp10,
                           many_virginica_samp10)

iris_sample_dists

# A tibble: 30,000 × 6
# Groups:   replicate [1,000]
   replicate Sepal.Length Sepal.Width Petal.Length Petal.Width Species
       <int>        <dbl>       <dbl>        <dbl>       <dbl> <fct>  
 1         1          4.8         3.1          1.6         0.2 setosa 
 2         1          5.8         4            1.2         0.2 setosa 
 3         1          4.3         3            1.1         0.1 setosa 
 4         1          4.7         3.2          1.3         0.2 setosa 
 5         1          4.5         2.3          1.3         0.3 setosa 
 6         1          4.4         3.2          1.3         0.2 setosa 
 7         1          5.5         3.5          1.3         0.2 setosa 
 8         1          4.6         3.2          1.4         0.2 setosa 
 9         1          4.8         3.4          1.9         0.2 setosa 
10         1          5           3            1.6         0.2 setosa 
# ℹ 29,990 more rows

Now we have a very large set of samples to examine.

4.2.2 Sample mean \(\bar{Y}\)

To look at the distribution of the sample mean, we first need to calculate the sample mean for all 1000 replicates per species. We will use two helpful functions from dplyr to first group the iris_sample_dists data.frame by species and replicate, and then calculate the mean for each species with the summarize function. Let’s first look at the sampling distribution of the mean of sepal length:

sepal_length_sample_dists <-  group_by(iris_sample_dists, Species, replicate)
sepal_length_sample_dists <- summarize(sepal_length_sample_dists, 
                                       Y_bar = mean(Sepal.Length))

sepal_length_sample_dists

# A tibble: 3,000 × 3
# Groups:   Species [3]
   Species replicate Y_bar
   <fct>       <int> <dbl>
 1 setosa          1  4.84
 2 setosa          2  4.93
 3 setosa          3  4.87
 4 setosa          4  4.86
 5 setosa          5  5.04
 6 setosa          6  5.1 
 7 setosa          7  5   
 8 setosa          8  5.05
 9 setosa          9  4.87
10 setosa         10  5.05
# ℹ 2,990 more rows
…
